Riding the Color Line: A Spatial Analysis of MARTA Distribution and Racial Segregation in Metro Atlanta
…
# transform to standard lat/long (WGS84)
marta_sf <- st_transform(marta_sf, crs = 4326)

# check it
print(marta_sf)

Simple feature collection with 38 features and 11 fields
Geometry type: POINT
Dimension:     XY
Bounding box:  xmin: -84.47044 ymin: 33.64068 xmax: -84.22966 ymax: 33.94382
Geodetic CRS:  WGS 84
# A tibble: 38 × 12
   OBJECTID Station        `Station Code` `Web Address` `Parking Spaces` Parking
 *    <dbl> <chr>          <chr>          <chr>                    <dbl> <chr>  
 1        1 Decatur        E6             https://www.…                0 No     
 2        2 Avondale       E7             https://www.…              734 Yes    
 3        3 Chamblee       NE9            https://www.…             1149 Yes    
 4        4 Lakewood-Ft. … S4             https://www.…             1048 Yes    
 5        5 Oakland City   S3             https://www.…              443 Yes    
 6        6 West End       S2             https://www.…              472 Yes    
 7        7 Arts Center    N5             https://www.…               33 Yes    
 8        8 Lindbergh Cen… N6             https://www.…             2519 Yes    
 9        9 Kensington     E8             https://www.…             1962 Yes    
10       10 Georgia State  E1             https://www.…                0 No     
# ℹ 28 more rows
# ℹ 6 more variables: `Street Address` <chr>, City <chr>, `Zip Code` <dbl>,
#   GlobalID <chr>, LABEL <chr>, geometry <POINT [°]>
…
